600 60 240
229
779
950
76
701
894
160
435
920
718
128
836
804
502
769
893
985
380
617
194
120
325
571
24
249
105
174
575
602
826
540
473
431
907
978
296
623
854
957
930
158
992
756
772
96
441
404
681
595
841
771
245
733
490
647
535
599
361
904
828
211
93
586
282
290
847
99
477
819
748
84
289
348
74
765
928
30
480
801
417
625
655
127
262
117
812
308
706
645
481
784
860
172
153
460
889
83
745
328
714
683
825
21
489
154
529
395
315
300
199
677
265
224
875
226
844
269
398
941
924
4
810
722
201
873
833
892
789
492
41
720
496
381
916
531
474
223
362
169
853
253
593
43
653
989
942
407
230
646
181
475
814
996
430
405
337
113
776
581
880
859
543
285
793
134
152
972
680
559
637
284
692
97
317
162
791
469
28
783
913
468
542
606
149
418
782
498
94
991
865
389
424
121
49
843
797
384
652
817
272
92
679
110
495
547
966
212
886
988
770
687
627
472
515
208
980
39
52
26
403
471
338
633
901
821
944
409
656
357
161
711
809
316
397
958
832
636
752
138
131
890
513
216
850
323
735
295
413
193
849
126
631
34
462
697
858
118
669
908
505
252
419
999
246
359
918
898
85
666
148
734
55
917
749
994
971
566
142
446
686
929
650
508
458
568
91
185
527
717
400
363
459
885
373
800
123
140
360
390
774
915
608
343
14
868
827
189
897
802
863
11
299
129
630
261
482
13
396
401
796
305
163
668
237
912
175
164
75
519
488
36
8
935
704
518
63
970
813
250
657
109
583
263
867
732
837
412
319
451
135
874
239
485
788
27
334
214
19
66
976
822
641
710
671
448
643
487
690
442
707
619
242
292
80
15
995
553
572
807
563
314
463
192
218
330
64
888
184
940
887
546
882
604
479
476
56
977
590
968
204
548
724
255
998
729
180
605
919
309
423
839
696
585
132
108
644
528
522
264
557
719
612
71
150
588
708
17
38
676
399
455
266
663
871
953
675
68
58
147
125
628
816
173
339
23
952
684
740
851
815
51
795
187
231
792
799
313
685
931
587
416
341
157
721
742
377
622
352
297
564
466
281
267
852
453
987
257
925
911
312
33
168
69
550
507
331
420
737
73
938
861
755
449
981
514
759
25
562
948
320
811
597
298
89
698
392
228
909
386
88
145
358
651
805
884
104
705
465
781
351
202
840
144
616
286
672
621
526
613
768
221
552
133
975
790
658
574
54
973
689
50
964
179
345
270
371
838
943
333
626
695
95
346
432
344
499
256
520
982
100
379
240
385
411
503
580
730
614
146
986
494
758
960
434
203
824
198
234
556
429
382
766
818
524
271
910
959
823
876
855
196
159
101
694
760
969
744
831
905
946